module codeberg.org/jkm/grtsp

go 1.17

require (
	github.com/icza/bitio v1.0.0
	github.com/pion/rtcp v1.2.9
	github.com/pion/rtp v1.7.4
	github.com/pion/sdp/v3 v3.0.2
	golang.org/x/net v0.0.0-20210610132358-84b48f89b13b
)

require (
	github.com/pion/randutil v0.1.0 // indirect
	golang.org/x/sys v0.0.0-20210423082822-04245dca01da // indirect
)
